TCRdist GPU implementation • TIRTLtools
…
library(TIRTLtools)

## Error in system("nvidia-smi", intern = TRUE, ignore.stderr = TRUE) : 
##   error in running command

library(dplyr)

Load an example dataset (annotated TCRs from VDJ-db)

tcr1 = TIRTLtools::vdj_db
### note: You may replace this with a file of your choice - needs to have columns "va", "vb", "cdr3a", and "cdr3b"

as_tibble(tcr1)

## # A tibble: 26,213 × 15
##    complex.id cdr3a  va    ja    cdr3b vb    jb    Species MHC.A MHC.B MHC.class
##         <int> <chr>  <chr> <chr> <chr> <chr> <chr> <chr>   <chr> <chr> <chr>    
##  1          5 CAVRD… TRAV… TRAJ… CASR… TRBV… TRBJ… HomoSa… HLA-… B2M   MHCI     
##  2          6 CAARG… TRAV… TRAJ… CASS… TRBV… TRBJ… HomoSa… HLA-… B2M   MHCI     
##  3          8 CAVRD… TRAV… TRAJ… CASS… TRBV… TRBJ… HomoSa… HLA-… B2M   MHCI     
##  4          9 CAFMK… TRAV… TRAJ… CASS… TRBV… TRBJ… HomoSa… HLA-… B2M   MHCI     
##  5         10 CAGGG… TRAV… TRAJ… CASS… TRBV… TRBJ… HomoSa… HLA-… B2M   MHCI     
##  6         11 CALAG… TRAV… TRAJ… CASS… TRBV… TRBJ… HomoSa… HLA-… B2M   MHCI     
##  7         12 CAGAD… TRAV… TRAJ… CASS… TRBV… TRBJ… HomoSa… HLA-… B2M   MHCI     
##  8         13 CAAGG… TRAV… TRAJ… CASS… TRBV… TRBJ… HomoSa… HLA-… B2M   MHCI     
##  9         14 CAAPP… TRAV… TRAJ… CASS… TRBV… TRBJ… HomoSa… HLA-… B2M   MHCI     
## 10         15 CAVRD… TRAV… TRAJ… CASS… TRBV… TRBJ… HomoSa… HLA-… B2M   MHCI     
## # ℹ 26,203 more rows
## # ℹ 4 more variables: Epitope <chr>, Epitope.gene <chr>, Epitope.species <chr>,
## #   Reference <chr>
…
edge_df = result[['TCRdist_df']] ### table of TCRdist values <= cutoff
meta_df = result[['tcr1']] ### table of input data with indices

as_tibble(edge_df)

## # A tibble: 101,797 × 3
##    edge1_0index edge2_0index TCRdist
##           <int>        <int>   <int>
##  1            5            4      87
##  2            7            4       3
##  3            7            5      90
##  4           12            4      15
##  5           12            5      78
##  6           12            7      12
##  7           13            4      78
##  8           13            6      72
##  9           13            7      81
## 10           14            6      45
## # ℹ 101,787 more rows

as_tibble(meta_df)

## # A tibble: 26,213 × 25
##    complex.id cdr3a  va    ja    cdr3b vb    jb    Species MHC.A MHC.B MHC.class
##         <int> <chr>  <chr> <chr> <chr> <chr> <chr> <chr>   <chr> <chr> <chr>    
##  1          5 CAVRD… TRAV… TRAJ… CASR… TRBV… TRBJ… HomoSa… HLA-… B2M   MHCI     
##  2          6 CAARG… TRAV… TRAJ… CASS… TRBV… TRBJ… HomoSa… HLA-… B2M   MHCI     
##  3          8 CAVRD… TRAV… TRAJ… CASS… TRBV… TRBJ… HomoSa… HLA-… B2M   MHCI     
##  4          9 CAFMK… TRAV… TRAJ… CASS… TRBV… TRBJ… HomoSa… HLA-… B2M   MHCI     
##  5         10 CAGGG… TRAV… TRAJ… CASS… TRBV… TRBJ… HomoSa… HLA-… B2M   MHCI     
##  6         11 CALAG… TRAV… TRAJ… CASS… TRBV… TRBJ… HomoSa… HLA-… B2M   MHCI     
##  7         12 CAGAD… TRAV… TRAJ… CASS… TRBV… TRBJ… HomoSa… HLA-… B2M   MHCI     
##  8         13 CAAGG… TRAV… TRAJ… CASS… TRBV… TRBJ… HomoSa… HLA-… B2M   MHCI     
##  9         14 CAAPP… TRAV… TRAJ… CASS… TRBV… TRBJ… HomoSa… HLA-… B2M   MHCI     
## 10         15 CAVRD… TRAV… TRAJ… CASS… TRBV… TRBJ… HomoSa… HLA-… B2M   MHCI     
## # ℹ 26,203 more rows
## # ℹ 14 more variables: Epitope <chr>, Epitope.gene <chr>,
## #   Epitope.species <chr>, Reference <chr>, va_orig <chr>, vb_orig <chr>,
## #   alpha_has_stop_codon <lgl>, alpha_has_frameshift <lgl>,
## #   beta_has_stop_codon <lgl>, beta_has_frameshift <lgl>,
## #   alpha_is_functional <lgl>, beta_is_functional <lgl>, is_functional <lgl>,
## #   tcr_index <dbl>
…
